module gitlab.com/gitlab-org/security-products/analyzers/gosec/v2

require (
	github.com/sirupsen/logrus v1.7.0
	github.com/urfave/cli/v2 v2.3.0
	gitlab.com/gitlab-org/security-products/analyzers/command v1.1.0
	gitlab.com/gitlab-org/security-products/analyzers/common/v2 v2.22.1
	gitlab.com/gitlab-org/security-products/analyzers/report/v2 v2.1.0
	gitlab.com/gitlab-org/security-products/analyzers/ruleset v1.0.0
	gitlab.com/gitlab-org/security-products/cwe-info-go v1.0.2
	golang.org/x/crypto v0.0.0-20201216223049-8b5274cf687f
)

go 1.15
